
効果音メモ　　　　　　　　　　効果音ファイル名

剣振る                         =swordattack
球打つ                         =shot                    
ジャンプ                       =jamp
ダメージ食らう                 =damage                    
ボタンクリック                 =click of button 
話しかけるとき                 =talk
会話のぴこぴこ音               =talk_picopico
歩く音（なくても良いかも）     =walk
アイテム拾う                   =itemget
敵の打撃攻撃                   =enemy_attack
キノコのほうし吐くとき         =kinoko_attack
龍の隕石                       =ryusei_attack
オケラの拳                     =kokera_attack
ナマズのドシン                 =namazu_attack
エリア移動の際の足音           =stage_migration
スペルカード発動               =spelcard
スペルカードのドカーンという音 =spelcard_bom
ショックを受ける               =shock
出来ない事をする               =miss
猫の鳴き声                     =cat
カラスの鳴き声                 =crow





ダウンロードはほぼＭＰ3
